^E:\EVALUATE\EVALUATE\EVALUATE\STDAFX.CPP
E:\EVALUATE\EVALUATE\EVALUATE\DEBUG\EVALUATE.PCH
E:\EVALUATE\EVALUATE\EVALUATE\DEBUG\VC141.PDB
E:\EVALUATE\EVALUATE\EVALUATE\DEBUG\VC141.IDB
E:\EVALUATE\EVALUATE\EVALUATE\DEBUG\STDAFX.OBJ
^E:\EVALUATE\EVALUATE\EVALUATE\EVALUATE.CPP
E:\EVALUATE\EVALUATE\EVALUATE\DEBUG\VC141.PDB
E:\EVALUATE\EVALUATE\EVALUATE\DEBUG\VC141.IDB
E:\EVALUATE\EVALUATE\EVALUATE\DEBUG\EVALUATE.OBJ
